32-bit-MIPS-Processor/mips_testbench.vcd
$date
	Mon May 23 22:59:38 2022
$end
$version
	Icarus Verilog
$end
$timescale
	1ns
$end
$scope module mips_testbench $end
$var reg 1 ! clock $end
$scope module test $end
$var event 1 " _ivl_6 $end
$var wire 1 # branch_signal $end
$var wire 1 ! clock $end
$var wire 1 $ write_reg_signal $end
$var wire 1 % write_mem_signal $end
$var wire 32 & write_data [31:0] $end
$var wire 5 ' shamt [4:0] $end
$var wire 32 ( rt_content [31:0] $end
$var wire 5 ) rt [4:0] $end
$var wire 32 * rs_content [31:0] $end
$var wire 5 + rs [4:0] $end
$var wire 1 , regDst_signal $end
$var wire 1 - read_reg_signal $end
$var wire 1 . read_mem_signal $end
$var wire 5 / rd [4:0] $end
$var wire 6 0 opcode [5:0] $end
$var wire 32 1 muxOut [31:0] $end
$var wire 32 2 memory_read_data [31:0] $end
$var wire 32 3 instruction [31:0] $end
$var wire 16 4 immediate [15:0] $end
$var wire 6 5 funct [5:0] $end
$var wire 26 6 address [25:0] $end
$var reg 32 7 PC [31:0] $end
$scope module alu_process $end
$var event 1 8 _ivl_6 $end
$var wire 5 9 shamt [4:0] $end
$var wire 32 : rt_content [31:0] $end
$var wire 32 ; rs_content [31:0] $end
$var wire 6 < opcode [5:0] $end
$var wire 16 = immediate [15:0] $end
$var wire 6 > ALU_control [5:0] $end
$var reg 32 ? ALU_result [31:0] $end
$var reg 1 @ sig_branch $end
$var reg 32 A signExtend [31:0] $end
$var reg 32 B signed_rs [31:0] $end
$var reg 32 C signed_rt [31:0] $end
$var reg 32 D temp [31:0] $end
$var reg 32 E zeroExtend [31:0] $end
$var integer 32 F i [31:0] $end
$upscope $end
$scope module contents $end
$var wire 1 ! clk $end
$var wire 32 G write_data [31:0] $end
$var wire 5 H write_reg [4:0] $end
$var wire 1 $ signal_regWrite $end
$var wire 1 - signal_regRead $end
$var wire 1 , signal_regDst $end
$var wire 5 I read_reg_2 [4:0] $end
$var wire 5 J read_reg_1 [4:0] $end
$var wire 6 K opcode [5:0] $end
$var reg 32 L read_data_1 [31:0] $end
$var reg 32 M read_data_2 [31:0] $end
$upscope $end
$scope module dataMemory $end
$var wire 32 N address [31:0] $end
$var wire 32 O write_data [31:0] $end
$var wire 1 % sig_mem_write $end
$var wire 1 . sig_mem_read $end
$var wire 6 P opcode [5:0] $end
$var reg 32 Q read_data [31:0] $end
$upscope $end
$scope module inst_mem $end
$var wire 32 R program_counter [31:0] $end
$var reg 32 S instruction [31:0] $end
$upscope $end
$scope module parse $end
$var wire 32 T instruction [31:0] $end
$var wire 32 U p_count [31:0] $end
$var wire 6 V opcode [5:0] $end
$var reg 26 W address [25:0] $end
$var reg 6 X funct [5:0] $end
$var reg 16 Y immediate [15:0] $end
$var reg 5 Z rd [4:0] $end
$var reg 5 [ rs [4:0] $end
$var reg 5 \ rt [4:0] $end
$var reg 5 ] shamt [4:0] $end
$upscope $end
$scope module signals $end
$var wire 6 ^ funct [5:0] $end
$var wire 6 _ opcode [5:0] $end
$var reg 1 ` Branch $end
$var reg 1 . MemRead $end
$var reg 1 % MemWrite $end
$var reg 1 , RegDst $end
$var reg 1 - RegRead $end
$var reg 1 $ RegWrite $end
$upscope $end
$upscope $end
$upscope $end
$enddefinitions $end
#0
$dumpvars
0`
b11 _
bx ^
bx ]
bx \
bx [
bx Z
bx Y
bx X
b10111 W
b11 V
b0 U
b1100000000000000000000010111 T
b1100000000000000000000010111 S
b0 R
bx Q
b11 P
bx O
bx N
bx M
bx L
b11 K
bx J
bx I
bx H
bx G
bx F
bx E
bx D
bx C
bx B
bx A
x@
bx ?
bx >
bx =
b11 <
bx ;
bx :
bx 9
18
b0 7
b10111 6
bx 5
bx 4
b1100000000000000000000010111 3
bx 2
bx 1
b11 0
bx /
0.
1-
0,
bx +
bx *
bx )
bx (
bx '
bx &
0%
1$
x#
1"
0!
$end
#100
b0 C
b0 B
b0 (
b0 :
b0 M
b0 O
b0 *
b0 ;
b0 L
1,
1-
0$
b1000 5
b1000 >
b1000 X
b1000 ^
b11111 +
b11111 J
b11111 [
b0 )
b0 I
b0 \
b0 /
b0 H
b0 Z
b0 '
b0 9
b0 ]
b0 0
b0 <
b0 K
b0 P
b0 V
b0 _
b11111000000000000000001000 3
b11111000000000000000001000 S
b11111000000000000000001000 T
b1 7
b1 R
b1 U
1!
#200
0!
#300
1$
0,
1-
b11 0
b11 <
b11 K
b11 P
b11 V
b11 _
b1100000000000000000000010111 3
b1100000000000000000000010111 S
b1100000000000000000000010111 T
b0 7
b0 R
b0 U
1!
#400
0!
#500
1,
1-
0$
b0 0
b0 <
b0 K
b0 P
b0 V
b0 _
b11111000000000000000001000 3
b11111000000000000000001000 S
b11111000000000000000001000 T
b1 7
b1 R
b1 U
1!
#600
0!
#700
1$
0,
1-
b11 0
b11 <
b11 K
b11 P
b11 V
b11 _
b1100000000000000000000010111 3
b1100000000000000000000010111 S
b1100000000000000000000010111 T
b0 7
b0 R
b0 U
1!
#800
0!
#900
1,
1-
0$
b0 0
b0 <
b0 K
b0 P
b0 V
b0 _
b11111000000000000000001000 3
b11111000000000000000001000 S
b11111000000000000000001000 T
b1 7
b1 R
b1 U
1!
#1000
0!
#1100
1$
0,
1-
b11 0
b11 <
b11 K
b11 P
b11 V
b11 _
b1100000000000000000000010111 3
b1100000000000000000000010111 S
b1100000000000000000000010111 T
b0 7
b0 R
b0 U
1!
#1200
0!
#1300
1,
1-
0$
b0 0
b0 <
b0 K
b0 P
b0 V
b0 _
b11111000000000000000001000 3
b11111000000000000000001000 S
b11111000000000000000001000 T
b1 7
b1 R
b1 U
1!
#1400
0!
#1500
1$
0,
1-
b11 0
b11 <
b11 K
b11 P
b11 V
b11 _
b1100000000000000000000010111 3
b1100000000000000000000010111 S
b1100000000000000000000010111 T
b0 7
b0 R
b0 U
1!
#1600
0!
#1700
1,
1-
0$
b0 0
b0 <
b0 K
b0 P
b0 V
b0 _
b11111000000000000000001000 3
b11111000000000000000001000 S
b11111000000000000000001000 T
b1 7
b1 R
b1 U
1!
#1800
0!
#1900
1$
0,
1-
b11 0
b11 <
b11 K
b11 P
b11 V
b11 _
b1100000000000000000000010111 3
b1100000000000000000000010111 S
b1100000000000000000000010111 T
b0 7
b0 R
b0 U
1!
#2000
0!
#2100
1,
1-
0$
b0 0
b0 <
b0 K
b0 P
b0 V
b0 _
b11111000000000000000001000 3
b11111000000000000000001000 S
b11111000000000000000001000 T
b1 7
b1 R
b1 U
1!
#2200
0!
#2300
1$
0,
1-
b11 0
b11 <
b11 K
b11 P
b11 V
b11 _
b1100000000000000000000010111 3
b1100000000000000000000010111 S
b1100000000000000000000010111 T
b0 7
b0 R
b0 U
1!
#2400
0!
#2500
1,
1-
0$
b0 0
b0 <
b0 K
b0 P
b0 V
b0 _
b11111000000000000000001000 3
b11111000000000000000001000 S
b11111000000000000000001000 T
b1 7
b1 R
b1 U
1!
#2600
0!
#2700
1$
0,
1-
b11 0
b11 <
b11 K
b11 P
b11 V
b11 _
b1100000000000000000000010111 3
b1100000000000000000000010111 S
b1100000000000000000000010111 T
b0 7
b0 R
b0 U
1!
#2800
0!
#2900
1,
1-
0$
b0 0
b0 <
b0 K
b0 P
b0 V
b0 _
b11111000000000000000001000 3
b11111000000000000000001000 S
b11111000000000000000001000 T
b1 7
b1 R
b1 U
1!
#3000
0!
#3100
1$
0,
1-
b11 0
b11 <
b11 K
b11 P
b11 V
b11 _
b1100000000000000000000010111 3
b1100000000000000000000010111 S
b1100000000000000000000010111 T
b0 7
b0 R
b0 U
1!
#3200
0!
#3300
1,
1-
0$
b0 0
b0 <
b0 K
b0 P
b0 V
b0 _
b11111000000000000000001000 3
b11111000000000000000001000 S
b11111000000000000000001000 T
b1 7
b1 R
b1 U
1!
#3400
0!
#3500
1$
0,
1-
b11 0
b11 <
b11 K
b11 P
b11 V
b11 _
b1100000000000000000000010111 3
b1100000000000000000000010111 S
b1100000000000000000000010111 T
b0 7
b0 R
b0 U
1!
#3600
0!
#3700
1,
1-
0$
b0 0
b0 <
b0 K
b0 P
b0 V
b0 _
b11111000000000000000001000 3
b11111000000000000000001000 S
b11111000000000000000001000 T
b1 7
b1 R
b1 U
1!
#3800
0!
#3900
1$
0,
1-
b11 0
b11 <
b11 K
b11 P
b11 V
b11 _
b1100000000000000000000010111 3
b1100000000000000000000010111 S
b1100000000000000000000010111 T
b0 7
b0 R
b0 U
1!
#4000
0!
#4100
1,
1-
0$
b0 0
b0 <
b0 K
b0 P
b0 V
b0 _
b11111000000000000000001000 3
b11111000000000000000001000 S
b11111000000000000000001000 T
b1 7
b1 R
b1 U
1!
#4200
0!
#4300
1$
0,
1-
b11 0
b11 <
b11 K
b11 P
b11 V
b11 _
b1100000000000000000000010111 3
b1100000000000000000000010111 S
b1100000000000000000000010111 T
b0 7
b0 R
b0 U
1!
#4400
0!
#4500
1,
1-
0$
b0 0
b0 <
b0 K
b0 P
b0 V
b0 _
b11111000000000000000001000 3
b11111000000000000000001000 S
b11111000000000000000001000 T
b1 7
b1 R
b1 U
1!
#4600
0!
#4700
1$
0,
1-
b11 0
b11 <
b11 K
b11 P
b11 V
b11 _
b1100000000000000000000010111 3
b1100000000000000000000010111 S
b1100000000000000000000010111 T
b0 7
b0 R
b0 U
1!
#4800
0!
#4900
1,
1-
0$
b0 0
b0 <
b0 K
b0 P
b0 V
b0 _
b11111000000000000000001000 3
b11111000000000000000001000 S
b11111000000000000000001000 T
b1 7
b1 R
b1 U
1!
#5000
0!
#5100
1$
0,
1-
b11 0
b11 <
b11 K
b11 P
b11 V
b11 _
b1100000000000000000000010111 3
b1100000000000000000000010111 S
b1100000000000000000000010111 T
b0 7
b0 R
b0 U
1!
#5200
0!
#5300
1,
1-
0$
b0 0
b0 <
b0 K
b0 P
b0 V
b0 _
b11111000000000000000001000 3
b11111000000000000000001000 S
b11111000000000000000001000 T
b1 7
b1 R
b1 U
1!
#5400
0!
#5500
1$
0,
1-
b11 0
b11 <
b11 K
b11 P
b11 V
b11 _
b1100000000000000000000010111 3
b1100000000000000000000010111 S
b1100000000000000000000010111 T
b0 7
b0 R
b0 U
1!
#5600
0!
#5700
1,
1-
0$
b0 0
b0 <
b0 K
b0 P
b0 V
b0 _
b11111000000000000000001000 3
b11111000000000000000001000 S
b11111000000000000000001000 T
b1 7
b1 R
b1 U
1!
#5800
0!
#5900
1$
0,
1-
b11 0
b11 <
b11 K
b11 P
b11 V
b11 _
b1100000000000000000000010111 3
b1100000000000000000000010111 S
b1100000000000000000000010111 T
b0 7
b0 R
b0 U
1!
#6000
0!
#6100
1,
1-
0$
b0 0
b0 <
b0 K
b0 P
b0 V
b0 _
b11111000000000000000001000 3
b11111000000000000000001000 S
b11111000000000000000001000 T
b1 7
b1 R
b1 U
1!
#6200
0!
#6300
1$
0,
1-
b11 0
b11 <
b11 K
b11 P
b11 V
b11 _
b1100000000000000000000010111 3
b1100000000000000000000010111 S
b1100000000000000000000010111 T
b0 7
b0 R
b0 U
1!
#6400
0!
#6500
1,
1-
0$
b0 0
b0 <
b0 K
b0 P
b0 V
b0 _
b11111000000000000000001000 3
b11111000000000000000001000 S
b11111000000000000000001000 T
b1 7
b1 R
b1 U
1!
#6600
0!
#6700
1$
0,
1-
b11 0
b11 <
b11 K
b11 P
b11 V
b11 _
b1100000000000000000000010111 3
b1100000000000000000000010111 S
b1100000000000000000000010111 T
b0 7
b0 R
b0 U
1!
#6800
0!
#6900
1,
1-
0$
b0 0
b0 <
b0 K
b0 P
b0 V
b0 _
b11111000000000000000001000 3
b11111000000000000000001000 S
b11111000000000000000001000 T
b1 7
b1 R
b1 U
1!
#7000
0!
#7100
1$
0,
1-
b11 0
b11 <
b11 K
b11 P
b11 V
b11 _
b1100000000000000000000010111 3
b1100000000000000000000010111 S
b1100000000000000000000010111 T
b0 7
b0 R
b0 U
1!
#7200
0!
#7300
1,
1-
0$
b0 0
b0 <
b0 K
b0 P
b0 V
b0 _
b11111000000000000000001000 3
b11111000000000000000001000 S
b11111000000000000000001000 T
b1 7
b1 R
b1 U
1!
#7400
0!
#7500
1$
0,
1-
b11 0
b11 <
b11 K
b11 P
b11 V
b11 _
b1100000000000000000000010111 3
b1100000000000000000000010111 S
b1100000000000000000000010111 T
b0 7
b0 R
b0 U
1!
#7600
0!
#7700
1,
1-
0$
b0 0
b0 <
b0 K
b0 P
b0 V
b0 _
b11111000000000000000001000 3
b11111000000000000000001000 S
b11111000000000000000001000 T
b1 7
b1 R
b1 U
1!
#7800
0!
#7900
1$
0,
1-
b11 0
b11 <
b11 K
b11 P
b11 V
b11 _
b1100000000000000000000010111 3
b1100000000000000000000010111 S
b1100000000000000000000010111 T
b0 7
b0 R
b0 U
1!
#8000
0!
#8100
1,
1-
0$
b0 0
b0 <
b0 K
b0 P
b0 V
b0 _
b11111000000000000000001000 3
b11111000000000000000001000 S
b11111000000000000000001000 T
b1 7
b1 R
b1 U
1!
#8200
0!
#8300
1$
0,
1-
b11 0
b11 <
b11 K
b11 P
b11 V
b11 _
b1100000000000000000000010111 3
b1100000000000000000000010111 S
b1100000000000000000000010111 T
b0 7
b0 R
b0 U
1!
#8400
0!
#8500
1,
1-
0$
b0 0
b0 <
b0 K
b0 P
b0 V
b0 _
b11111000000000000000001000 3
b11111000000000000000001000 S
b11111000000000000000001000 T
b1 7
b1 R
b1 U
1!
#8600
0!
#8700
1$
0,
1-
b11 0
b11 <
b11 K
b11 P
b11 V
b11 _
b1100000000000000000000010111 3
b1100000000000000000000010111 S
b1100000000000000000000010111 T
b0 7
b0 R
b0 U
1!
#8800
0!
#8900
1,
1-
0$
b0 0
b0 <
b0 K
b0 P
b0 V
b0 _
b11111000000000000000001000 3
b11111000000000000000001000 S
b11111000000000000000001000 T
b1 7
b1 R
b1 U
1!
#9000
0!
#9100
1$
0,
1-
b11 0
b11 <
b11 K
b11 P
b11 V
b11 _
b1100000000000000000000010111 3
b1100000000000000000000010111 S
b1100000000000000000000010111 T
b0 7
b0 R
b0 U
1!
#9200
0!
#9300
1,
1-
0$
b0 0
b0 <
b0 K
b0 P
b0 V
b0 _
b11111000000000000000001000 3
b11111000000000000000001000 S
b11111000000000000000001000 T
b1 7
b1 R
b1 U
1!
#9400
0!
#9500
1$
0,
1-
b11 0
b11 <
b11 K
b11 P
b11 V
b11 _
b1100000000000000000000010111 3
b1100000000000000000000010111 S
b1100000000000000000000010111 T
b0 7
b0 R
b0 U
1!
#9600
0!
#9700
1,
1-
0$
b0 0
b0 <
b0 K
b0 P
b0 V
b0 _
b11111000000000000000001000 3
b11111000000000000000001000 S
b11111000000000000000001000 T
b1 7
b1 R
b1 U
1!
#9800
0!
#9900
1$
0,
1-
b11 0
b11 <
b11 K
b11 P
b11 V
b11 _
b1100000000000000000000010111 3
b1100000000000000000000010111 S
b1100000000000000000000010111 T
b0 7
b0 R
b0 U
1!
#10000
0!
#10100
1,
1-
0$
b0 0
b0 <
b0 K
b0 P
b0 V
b0 _
b11111000000000000000001000 3
b11111000000000000000001000 S
b11111000000000000000001000 T
b1 7
b1 R
b1 U
1!
#10200
0!
#10300
1$
0,
1-
b11 0
b11 <
b11 K
b11 P
b11 V
b11 _
b1100000000000000000000010111 3
b1100000000000000000000010111 S
b1100000000000000000000010111 T
b0 7
b0 R
b0 U
1!
#10400
0!
#10500
1,
1-
0$
b0 0
b0 <
b0 K
b0 P
b0 V
b0 _
b11111000000000000000001000 3
b11111000000000000000001000 S
b11111000000000000000001000 T
b1 7
b1 R
b1 U
1!
#10600
0!
#10700
1$
0,
1-
b11 0
b11 <
b11 K
b11 P
b11 V
b11 _
b1100000000000000000000010111 3
b1100000000000000000000010111 S
b1100000000000000000000010111 T
b0 7
b0 R
b0 U
1!
#10800
0!
#10900
1,
1-
0$
b0 0
b0 <
b0 K
b0 P
b0 V
b0 _
b11111000000000000000001000 3
b11111000000000000000001000 S
b11111000000000000000001000 T
b1 7
b1 R
b1 U
1!
#11000
0!
#11100
1$
0,
1-
b11 0
b11 <
b11 K
b11 P
b11 V
b11 _
b1100000000000000000000010111 3
b1100000000000000000000010111 S
b1100000000000000000000010111 T
b0 7
b0 R
b0 U
1!
#11200
0!
#11300
1,
1-
0$
b0 0
b0 <
b0 K
b0 P
b0 V
b0 _
b11111000000000000000001000 3
b11111000000000000000001000 S
b11111000000000000000001000 T
b1 7
b1 R
b1 U
1!
#11400
0!
#11500
1$
0,
1-
b11 0
b11 <
b11 K
b11 P
b11 V
b11 _
b1100000000000000000000010111 3
b1100000000000000000000010111 S
b1100000000000000000000010111 T
b0 7
b0 R
b0 U
1!
#11600
0!
#11700
1,
1-
0$
b0 0
b0 <
b0 K
b0 P
b0 V
b0 _
b11111000000000000000001000 3
b11111000000000000000001000 S
b11111000000000000000001000 T
b1 7
b1 R
b1 U
1!
#11800
0!
#11900
1$
0,
1-
b11 0
b11 <
b11 K
b11 P
b11 V
b11 _
b1100000000000000000000010111 3
b1100000000000000000000010111 S
b1100000000000000000000010111 T
b0 7
b0 R
b0 U
1!
#12000
0!
#12100
1,
1-
0$
b0 0
b0 <
b0 K
b0 P
b0 V
b0 _
b11111000000000000000001000 3
b11111000000000000000001000 S
b11111000000000000000001000 T
b1 7
b1 R
b1 U
1!
#12200
0!
#12300
1$
0,
1-
b11 0
b11 <
b11 K
b11 P
b11 V
b11 _
b1100000000000000000000010111 3
b1100000000000000000000010111 S
b1100000000000000000000010111 T
b0 7
b0 R
b0 U
1!
#12400
0!
#12500
1,
1-
0$
b0 0
b0 <
b0 K
b0 P
b0 V
b0 _
b11111000000000000000001000 3
b11111000000000000000001000 S
b11111000000000000000001000 T
b1 7
b1 R
b1 U
1!
#12600
0!
#12700
1$
0,
1-
b11 0
b11 <
b11 K
b11 P
b11 V
b11 _
b1100000000000000000000010111 3
b1100000000000000000000010111 S
b1100000000000000000000010111 T
b0 7
b0 R
b0 U
1!
#12800
0!
#12900
1,
1-
0$
b0 0
b0 <
b0 K
b0 P
b0 V
b0 _
b11111000000000000000001000 3
b11111000000000000000001000 S
b11111000000000000000001000 T
b1 7
b1 R
b1 U
1!
#13000
0!
#13100
1$
0,
1-
b11 0
b11 <
b11 K
b11 P
b11 V
b11 _
b1100000000000000000000010111 3
b1100000000000000000000010111 S
b1100000000000000000000010111 T
b0 7
b0 R
b0 U
1!
#13200
0!
#13300
1,
1-
0$
b0 0
b0 <
b0 K
b0 P
b0 V
b0 _
b11111000000000000000001000 3
b11111000000000000000001000 S
b11111000000000000000001000 T
b1 7
b1 R
b1 U
1!
#13400
0!
#13500
1$
0,
1-
b11 0
b11 <
b11 K
b11 P
b11 V
b11 _
b1100000000000000000000010111 3
b1100000000000000000000010111 S
b1100000000000000000000010111 T
b0 7
b0 R
b0 U
1!
#13600
0!
#13700
1,
1-
0$
b0 0
b0 <
b0 K
b0 P
b0 V
b0 _
b11111000000000000000001000 3
b11111000000000000000001000 S
b11111000000000000000001000 T
b1 7
b1 R
b1 U
1!
#13800
0!
#13900
1$
0,
1-
b11 0
b11 <
b11 K
b11 P
b11 V
b11 _
b1100000000000000000000010111 3
b1100000000000000000000010111 S
b1100000000000000000000010111 T
b0 7
b0 R
b0 U
1!
#14000
0!
#14100
1,
1-
0$
b0 0
b0 <
b0 K
b0 P
b0 V
b0 _
b11111000000000000000001000 3
b11111000000000000000001000 S
b11111000000000000000001000 T
b1 7
b1 R
b1 U
1!
#14200
0!
#14300
1$
0,
1-
b11 0
b11 <
b11 K
b11 P
b11 V
b11 _
b1100000000000000000000010111 3
b1100000000000000000000010111 S
b1100000000000000000000010111 T
b0 7
b0 R
b0 U
1!
#14400
0!
#14500
1,
1-
0$
b0 0
b0 <
b0 K
b0 P
b0 V
b0 _
b11111000000000000000001000 3
b11111000000000000000001000 S
b11111000000000000000001000 T
b1 7
b1 R
b1 U
1!
#14600
0!
#14700
1$
0,
1-
b11 0
b11 <
b11 K
b11 P
b11 V
b11 _
b1100000000000000000000010111 3
b1100000000000000000000010111 S
b1100000000000000000000010111 T
b0 7
b0 R
b0 U
1!
#14800
0!
#14900
1,
1-
0$
b0 0
b0 <
b0 K
b0 P
b0 V
b0 _
b11111000000000000000001000 3
b11111000000000000000001000 S
b11111000000000000000001000 T
b1 7
b1 R
b1 U
1!
#15000
0!
#15100
1$
0,
1-
b11 0
b11 <
b11 K
b11 P
b11 V
b11 _
b1100000000000000000000010111 3
b1100000000000000000000010111 S
b1100000000000000000000010111 T
b0 7
b0 R
b0 U
1!
#15200
0!
#15300
1,
1-
0$
b0 0
b0 <
b0 K
b0 P
b0 V
b0 _
b11111000000000000000001000 3
b11111000000000000000001000 S
b11111000000000000000001000 T
b1 7
b1 R
b1 U
1!
#15400
0!
#15500
1$
0,
1-
b11 0
b11 <
b11 K
b11 P
b11 V
b11 _
b1100000000000000000000010111 3
b1100000000000000000000010111 S
b1100000000000000000000010111 T
b0 7
b0 R
b0 U
1!
#15600
0!
#15700
1,
1-
0$
b0 0
b0 <
b0 K
b0 P
b0 V
b0 _
b11111000000000000000001000 3
b11111000000000000000001000 S
b11111000000000000000001000 T
b1 7
b1 R
b1 U
1!
#15800
0!
#15900
1$
0,
1-
b11 0
b11 <
b11 K
b11 P
b11 V
b11 _
b1100000000000000000000010111 3
b1100000000000000000000010111 S
b1100000000000000000000010111 T
b0 7
b0 R
b0 U
1!
#16000
0!
#16100
1,
1-
0$
b0 0
b0 <
b0 K
b0 P
b0 V
b0 _
b11111000000000000000001000 3
b11111000000000000000001000 S
b11111000000000000000001000 T
b1 7
b1 R
b1 U
1!
#16200
0!
#16300
1$
0,
1-
b11 0
b11 <
b11 K
b11 P
b11 V
b11 _
b1100000000000000000000010111 3
b1100000000000000000000010111 S
b1100000000000000000000010111 T
b0 7
b0 R
b0 U
1!
#16400
0!
#16500
1,
1-
0$
b0 0
b0 <
b0 K
b0 P
b0 V
b0 _
b11111000000000000000001000 3
b11111000000000000000001000 S
b11111000000000000000001000 T
b1 7
b1 R
b1 U
1!
#16600
0!
#16700
1$
0,
1-
b11 0
b11 <
b11 K
b11 P
b11 V
b11 _
b1100000000000000000000010111 3
b1100000000000000000000010111 S
b1100000000000000000000010111 T
b0 7
b0 R
b0 U
1!
#16800
0!
#16900
1,
1-
0$
b0 0
b0 <
b0 K
b0 P
b0 V
b0 _
b11111000000000000000001000 3
b11111000000000000000001000 S
b11111000000000000000001000 T
b1 7
b1 R
b1 U
1!
#17000
0!
#17100
1$
0,
1-
b11 0
b11 <
b11 K
b11 P
b11 V
b11 _
b1100000000000000000000010111 3
b1100000000000000000000010111 S
b1100000000000000000000010111 T
b0 7
b0 R
b0 U
1!
#17200
0!
#17300
1,
1-
0$
b0 0
b0 <
b0 K
b0 P
b0 V
b0 _
b11111000000000000000001000 3
b11111000000000000000001000 S
b11111000000000000000001000 T
b1 7
b1 R
b1 U
1!
#17400
0!
#17500
1$
0,
1-
b11 0
b11 <
b11 K
b11 P
b11 V
b11 _
b1100000000000000000000010111 3
b1100000000000000000000010111 S
b1100000000000000000000010111 T
b0 7
b0 R
b0 U
1!
#17600
0!
#17700
1,
1-
0$
b0 0
b0 <
b0 K
b0 P
b0 V
b0 _
b11111000000000000000001000 3
b11111000000000000000001000 S
b11111000000000000000001000 T
b1 7
b1 R
b1 U
1!
#17800
0!
#17900
1$
0,
1-
b11 0
b11 <
b11 K
b11 P
b11 V
b11 _
b1100000000000000000000010111 3
b1100000000000000000000010111 S
b1100000000000000000000010111 T
b0 7
b0 R
b0 U
1!
#18000
0!
#18100
1,
1-
0$
b0 0
b0 <
b0 K
b0 P
b0 V
b0 _
b11111000000000000000001000 3
b11111000000000000000001000 S
b11111000000000000000001000 T
b1 7
b1 R
b1 U
1!
#18200
0!
#18300
1$
0,
1-
b11 0
b11 <
b11 K
b11 P
b11 V
b11 _
b1100000000000000000000010111 3
b1100000000000000000000010111 S
b1100000000000000000000010111 T
b0 7
b0 R
b0 U
1!
#18400
0!
#18500
1,
1-
0$
b0 0
b0 <
b0 K
b0 P
b0 V
b0 _
b11111000000000000000001000 3
b11111000000000000000001000 S
b11111000000000000000001000 T
b1 7
b1 R
b1 U
1!
#18600
0!
#18700
1$
0,
1-
b11 0
b11 <
b11 K
b11 P
b11 V
b11 _
b1100000000000000000000010111 3
b1100000000000000000000010111 S
b1100000000000000000000010111 T
b0 7
b0 R
b0 U
1!
#18800
0!
#18900
1,
1-
0$
b0 0
b0 <
b0 K
b0 P
b0 V
b0 _
b11111000000000000000001000 3
b11111000000000000000001000 S
b11111000000000000000001000 T
b1 7
b1 R
b1 U
1!
#19000
0!
#19100
1$
0,
1-
b11 0
b11 <
b11 K
b11 P
b11 V
b11 _
b1100000000000000000000010111 3
b1100000000000000000000010111 S
b1100000000000000000000010111 T
b0 7
b0 R
b0 U
1!
#19200
0!
#19300
1,
1-
0$
b0 0
b0 <
b0 K
b0 P
b0 V
b0 _
b11111000000000000000001000 3
b11111000000000000000001000 S
b11111000000000000000001000 T
b1 7
b1 R
b1 U
1!
#19400
0!
#19500
1$
0,
1-
b11 0
b11 <
b11 K
b11 P
b11 V
b11 _
b1100000000000000000000010111 3
b1100000000000000000000010111 S
b1100000000000000000000010111 T
b0 7
b0 R
b0 U
1!
#19600
0!
#19700
1,
1-
0$
b0 0
b0 <
b0 K
b0 P
b0 V
b0 _
b11111000000000000000001000 3
b11111000000000000000001000 S
b11111000000000000000001000 T
b1 7
b1 R
b1 U
1!
#19800
0!
#19900
1$
0,
1-
b11 0
b11 <
b11 K
b11 P
b11 V
b11 _
b1100000000000000000000010111 3
b1100000000000000000000010111 S
b1100000000000000000000010111 T
b0 7
b0 R
b0 U
1!
#20000
0!
#20100
1,
1-
0$
b0 0
b0 <
b0 K
b0 P
b0 V
b0 _
b11111000000000000000001000 3
b11111000000000000000001000 S
b11111000000000000000001000 T
b1 7
b1 R
b1 U
1!
#20200
0!
#20300
1$
0,
1-
b11 0
b11 <
b11 K
b11 P
b11 V
b11 _
b1100000000000000000000010111 3
b1100000000000000000000010111 S
b1100000000000000000000010111 T
b0 7
b0 R
b0 U
1!
#20400
0!
#20500
1,
1-
0$
b0 0
b0 <
b0 K
b0 P
b0 V
b0 _
b11111000000000000000001000 3
b11111000000000000000001000 S
b11111000000000000000001000 T
b1 7
b1 R
b1 U
1!
#20600
0!
#20700
1$
0,
1-
b11 0
b11 <
b11 K
b11 P
b11 V
b11 _
b1100000000000000000000010111 3
b1100000000000000000000010111 S
b1100000000000000000000010111 T
b0 7
b0 R
b0 U
1!
#20800
0!
#20900
1,
1-
0$
b0 0
b0 <
b0 K
b0 P
b0 V
b0 _
b11111000000000000000001000 3
b11111000000000000000001000 S
b11111000000000000000001000 T
b1 7
b1 R
b1 U
1!
#21000
0!
#21100
1$
0,
1-
b11 0
b11 <
b11 K
b11 P
b11 V
b11 _
b1100000000000000000000010111 3
b1100000000000000000000010111 S
b1100000000000000000000010111 T
b0 7
b0 R
b0 U
1!
#21200
0!
#21300
1,
1-
0$
b0 0
b0 <
b0 K
b0 P
b0 V
b0 _
b11111000000000000000001000 3
b11111000000000000000001000 S
b11111000000000000000001000 T
b1 7
b1 R
b1 U
1!
#21400
0!
#21500
1$
0,
1-
b11 0
b11 <
b11 K
b11 P
b11 V
b11 _
b1100000000000000000000010111 3
b1100000000000000000000010111 S
b1100000000000000000000010111 T
b0 7
b0 R
b0 U
1!
#21600
0!
#21700
1,
1-
0$
b0 0
b0 <
b0 K
b0 P
b0 V
b0 _
b11111000000000000000001000 3
b11111000000000000000001000 S
b11111000000000000000001000 T
b1 7
b1 R
b1 U
1!
#21800
0!
#21900
1$
0,
1-
b11 0
b11 <
b11 K
b11 P
b11 V
b11 _
b1100000000000000000000010111 3
b1100000000000000000000010111 S
b1100000000000000000000010111 T
b0 7
b0 R
b0 U
1!
#22000
0!
#22100
1,
1-
0$
b0 0
b0 <
b0 K
b0 P
b0 V
b0 _
b11111000000000000000001000 3
b11111000000000000000001000 S
b11111000000000000000001000 T
b1 7
b1 R
b1 U
1!
#22200
0!
#22300
1$
0,
1-
b11 0
b11 <
b11 K
b11 P
b11 V
b11 _
b1100000000000000000000010111 3
b1100000000000000000000010111 S
b1100000000000000000000010111 T
b0 7
b0 R
b0 U
1!
#22400
0!
#22500
1,
1-
0$
b0 0
b0 <
b0 K
b0 P
b0 V
b0 _
b11111000000000000000001000 3
b11111000000000000000001000 S
b11111000000000000000001000 T
b1 7
b1 R
b1 U
1!
#22600
0!
#22700
1$
0,
1-
b11 0
b11 <
b11 K
b11 P
b11 V
b11 _
b1100000000000000000000010111 3
b1100000000000000000000010111 S
b1100000000000000000000010111 T
b0 7
b0 R
b0 U
1!
#22800
0!
#22900
1,
1-
0$
b0 0
b0 <
b0 K
b0 P
b0 V
b0 _
b11111000000000000000001000 3
b11111000000000000000001000 S
b11111000000000000000001000 T
b1 7
b1 R
b1 U
1!
#23000
0!
#23100
1$
0,
1-
b11 0
b11 <
b11 K
b11 P
b11 V
b11 _
b1100000000000000000000010111 3
b1100000000000000000000010111 S
b1100000000000000000000010111 T
b0 7
b0 R
b0 U
1!
#23200
0!
#23300
1,
1-
0$
b0 0
b0 <
b0 K
b0 P
b0 V
b0 _
b11111000000000000000001000 3
b11111000000000000000001000 S
b11111000000000000000001000 T
b1 7
b1 R
b1 U
1!
#23400
0!
#23500
1$
0,
1-
b11 0
b11 <
b11 K
b11 P
b11 V
b11 _
b1100000000000000000000010111 3
b1100000000000000000000010111 S
b1100000000000000000000010111 T
b0 7
b0 R
b0 U
1!
#23600
0!
#23700
1,
1-
0$
b0 0
b0 <
b0 K
b0 P
b0 V
b0 _
b11111000000000000000001000 3
b11111000000000000000001000 S
b11111000000000000000001000 T
b1 7
b1 R
b1 U
1!
