32-bit-MIPS-Processor/mips_testbench.vcd
$date
	Tue May 24 10:25:52 2022
$end
$version
	Icarus Verilog
$end
$timescale
	1ns
$end
$scope module mips_testbench $end
$var reg 1 ! clock $end
$scope module test $end
$var event 1 " _s6 $end
$var wire 1 # branch_signal $end
$var wire 1 ! clock $end
$var wire 1 $ write_reg_signal $end
$var wire 1 % write_mem_signal $end
$var wire 32 & write_data [31:0] $end
$var wire 5 ' shamt [4:0] $end
$var wire 32 ( rt_content [31:0] $end
$var wire 5 ) rt [4:0] $end
$var wire 32 * rs_content [31:0] $end
$var wire 5 + rs [4:0] $end
$var wire 1 , regDst_signal $end
$var wire 1 - read_reg_signal $end
$var wire 1 . read_mem_signal $end
$var wire 5 / rd [4:0] $end
$var wire 6 0 opcode [5:0] $end
$var wire 32 1 muxOut [31:0] $end
$var wire 32 2 memory_read_data [31:0] $end
$var wire 32 3 instruction [31:0] $end
$var wire 16 4 immediate [15:0] $end
$var wire 6 5 funct [5:0] $end
$var wire 26 6 address [25:0] $end
$var reg 32 7 PC [31:0] $end
$scope module alu_process $end
$var event 1 8 _s6 $end
$var wire 5 9 shamt [4:0] $end
$var wire 32 : rt_content [31:0] $end
$var wire 32 ; rs_content [31:0] $end
$var wire 6 < opcode [5:0] $end
$var wire 16 = immediate [15:0] $end
$var wire 6 > ALU_control [5:0] $end
$var reg 32 ? ALU_result [31:0] $end
$var reg 1 @ sig_branch $end
$var reg 32 A signExtend [31:0] $end
$var reg 32 B signed_rs [31:0] $end
$var reg 32 C signed_rt [31:0] $end
$var reg 32 D temp [31:0] $end
$var reg 32 E zeroExtend [31:0] $end
$var integer 32 F i [31:0] $end
$upscope $end
$scope module contents $end
$var wire 1 ! clk $end
$var wire 32 G write_data [31:0] $end
$var wire 5 H write_reg [4:0] $end
$var wire 1 $ signal_regWrite $end
$var wire 1 - signal_regRead $end
$var wire 1 , signal_regDst $end
$var wire 5 I read_reg_2 [4:0] $end
$var wire 5 J read_reg_1 [4:0] $end
$var wire 6 K opcode [5:0] $end
$var reg 32 L read_data_1 [31:0] $end
$var reg 32 M read_data_2 [31:0] $end
$upscope $end
$scope module dataMemory $end
$var wire 32 N address [31:0] $end
$var wire 32 O write_data [31:0] $end
$var wire 1 % sig_mem_write $end
$var wire 1 . sig_mem_read $end
$var wire 6 P opcode [5:0] $end
$var reg 32 Q read_data [31:0] $end
$upscope $end
$scope module inst_mem $end
$var wire 32 R program_counter [31:0] $end
$var reg 32 S instruction [31:0] $end
$upscope $end
$scope module parse $end
$var wire 32 T instruction [31:0] $end
$var wire 32 U p_count [31:0] $end
$var wire 6 V opcode [5:0] $end
$var reg 26 W address [25:0] $end
$var reg 6 X funct [5:0] $end
$var reg 16 Y immediate [15:0] $end
$var reg 5 Z rd [4:0] $end
$var reg 5 [ rs [4:0] $end
$var reg 5 \ rt [4:0] $end
$var reg 5 ] shamt [4:0] $end
$upscope $end
$scope module signals $end
$var wire 6 ^ funct [5:0] $end
$var wire 6 _ opcode [5:0] $end
$var reg 1 ` Branch $end
$var reg 1 . MemRead $end
$var reg 1 % MemWrite $end
$var reg 1 , RegDst $end
$var reg 1 - RegRead $end
$var reg 1 $ RegWrite $end
$upscope $end
$upscope $end
$upscope $end
$enddefinitions $end
#0
$dumpvars
0`
b11 _
bx ^
bx ]
bx \
bx [
bx Z
bx Y
bx X
b1 W
b11 V
b0 U
b1100000000000000000000000001 T
b1100000000000000000000000001 S
b0 R
bx Q
b11 P
bx O
bx N
bx M
bx L
b11 K
bx J
bx I
bx H
bx G
bx F
bx E
bx D
bx C
bx B
bx A
x@
bx ?
bx >
bx =
b11 <
bx ;
bx :
bx 9
18
b0 7
b1 6
bx 5
bx 4
b1100000000000000000000000001 3
bx 2
bx 1
b11 0
bx /
0.
1-
0,
bx +
bx *
bx )
bx (
bx '
bx &
0%
1$
x#
1"
0!
$end
#100
b0 1
b0 G
b0 &
b0 ?
b0 N
b0 E
b0 A
0-
1$
b0 4
b0 =
b0 Y
b0 +
b0 J
b0 [
b1 )
b1 I
b1 \
b1111 0
b1111 <
b1111 K
b1111 P
b1111 V
b1111 _
b111100000000010000000000000000 3
b111100000000010000000000000000 S
b111100000000010000000000000000 T
b1 7
b1 R
b1 U
1!
#200
0!
#300
b0 C
b0 B
b0 (
b0 :
b0 M
b0 O
b0 *
b0 ;
b0 L
1-
1$
b1 +
b1 J
b1 [
b1000 )
b1000 I
b1000 \
b1101 0
b1101 <
b1101 K
b1101 P
b1101 V
b1101 _
b110100001010000000000000000000 3
b110100001010000000000000000000 S
b110100001010000000000000000000 T
b10 7
b10 R
b10 U
1!
#400
0!
#500
0-
1$
b0 +
b0 J
b0 [
b1 )
b1 I
b1 \
b1111 0
b1111 <
b1111 K
b1111 P
b1111 V
b1111 _
b111100000000010000000000000000 3
b111100000000010000000000000000 S
b111100000000010000000000000000 T
b11 7
b11 R
b11 U
1!
#600
0!
#700
b1 1
b1 G
b1 &
b1 ?
b1 N
b1 E
b1 A
1-
1$
b1 4
b1 =
b1 Y
b1 +
b1 J
b1 [
b1001 )
b1001 I
b1001 \
b1101 0
b1101 <
b1101 K
b1101 P
b1101 V
b1101 _
b110100001010010000000000000001 3
b110100001010010000000000000001 S
b110100001010010000000000000001 T
b100 7
b100 R
b100 U
1!
#800
0!
#900
b0 1
b0 G
b0 &
b0 ?
b0 N
b0 E
b0 A
0-
1$
b0 4
b0 =
b0 Y
b0 +
b0 J
b0 [
b1 )
b1 I
b1 \
b1111 0
b1111 <
b1111 K
b1111 P
b1111 V
b1111 _
b111100000000010000000000000000 3
b111100000000010000000000000000 S
b111100000000010000000000000000 T
b101 7
b101 R
b101 U
1!
#1000
0!
#1100
b11101 1
b11101 G
b11101 &
b11101 ?
b11101 N
b11101 E
b11101 A
1-
1$
b11101 4
b11101 =
b11101 Y
b1 +
b1 J
b1 [
b1010 )
b1010 I
b1010 \
b1101 0
b1101 <
b1101 K
b1101 P
b1101 V
b1101 _
b110100001010100000000000011101 3
b110100001010100000000000011101 S
b110100001010100000000000011101 T
b110 7
b110 R
b110 U
1!
#1200
0!
#1300
b0 E
b0 A
b11101 B
b11101 *
b11101 ;
b11101 L
1%
1-
0$
b0 4
b0 =
b0 Y
b1010 +
b1010 J
b1010 [
b1000 )
b1000 I
b1000 \
b101011 0
b101011 <
b101011 K
b101011 P
b101011 V
b101011 _
b10101101010010000000000000000000 3
b10101101010010000000000000000000 S
b10101101010010000000000000000000 T
b111 7
b111 R
b111 U
1!
#1400
0!
#1500
b1 1
b1 G
b1 &
b1 ?
b1 N
b1 C
b0 B
b1 (
b1 :
b1 M
b1 O
b0 *
b0 ;
b0 L
1$
1,
1-
0%
b100000 5
b100000 >
b100000 X
b100000 ^
b11101 +
b11101 J
b11101 [
b1001 )
b1001 I
b1001 \
b11101 /
b11101 H
b11101 Z
b0 '
b0 9
b0 ]
b0 0
b0 <
b0 K
b0 P
b0 V
b0 _
b11101010011110100000100000 3
b11101010011110100000100000 S
b11101010011110100000100000 T
b1000 7
b1000 R
b1000 U
1!
#1600
0!
#1700
0,
0-
1$
b0 +
b0 J
b0 [
b1 )
b1 I
b1 \
b1111 0
b1111 <
b1111 K
b1111 P
b1111 V
b1111 _
b111100000000010000000000000000 3
b111100000000010000000000000000 S
b111100000000010000000000000000 T
b1001 7
b1001 R
b1001 U
1!
#1800
0!
#1900
b11110 1
b11110 G
b11110 &
b11110 ?
b11110 N
b11110 E
b11110 A
b11101 C
b11101 (
b11101 :
b11101 M
b11101 O
1-
1$
b11110 4
b11110 =
b11110 Y
b1 +
b1 J
b1 [
b1010 )
b1010 I
b1010 \
b1101 0
b1101 <
b1101 K
b1101 P
b1101 V
b1101 _
b110100001010100000000000011110 3
b110100001010100000000000011110 S
b110100001010100000000000011110 T
b1010 7
b1010 R
b1010 U
1!
#2000
0!
#2100
b0 E
b0 A
b0 C
b11110 B
b0 (
b0 :
b0 M
b0 O
b11110 *
b11110 ;
b11110 L
1%
1-
0$
b0 4
b0 =
b0 Y
b1010 +
b1010 J
b1010 [
b1000 )
b1000 I
b1000 \
b101011 0
b101011 <
b101011 K
b101011 P
b101011 V
b101011 _
b10101101010010000000000000000000 3
b10101101010010000000000000000000 S
b10101101010010000000000000000000 T
b1011 7
b1011 R
b1011 U
1!
#2200
0!
#2300
b10 1
b10 G
b10 &
b10 ?
b10 N
b1 C
b1 B
b1 (
b1 :
b1 M
b1 O
b1 *
b1 ;
b1 L
1$
1,
1-
0%
b11101 +
b11101 J
b11101 [
b1001 )
b1001 I
b1001 \
b0 0
b0 <
b0 K
b0 P
b0 V
b0 _
b11101010011110100000100000 3
b11101010011110100000100000 S
b11101010011110100000100000 T
b1100 7
b1100 R
b1100 U
1!
#2400
0!
#2500
0,
0-
1$
b0 +
b0 J
b0 [
b1 )
b1 I
b1 \
b1111 0
b1111 <
b1111 K
b1111 P
b1111 V
b1111 _
b111100000000010000000000000000 3
b111100000000010000000000000000 S
b111100000000010000000000000000 T
b1101 7
b1101 R
b1101 U
1!
#2600
0!
#2700
b11111 1
b11111 G
b11111 &
b11111 ?
b11111 N
b11111 E
b11111 A
b11110 C
b0 B
b11110 (
b11110 :
b11110 M
b11110 O
b0 *
b0 ;
b0 L
1-
1$
b11111 4
b11111 =
b11111 Y
b1 +
b1 J
b1 [
b1010 )
b1010 I
b1010 \
b1101 0
b1101 <
b1101 K
b1101 P
b1101 V
b1101 _
b110100001010100000000000011111 3
b110100001010100000000000011111 S
b110100001010100000000000011111 T
b1110 7
b1110 R
b1110 U
1!
#2800
0!
#2900
b0 E
b0 A
b0 C
b11111 B
b0 (
b0 :
b0 M
b0 O
b11111 *
b11111 ;
b11111 L
1%
1-
0$
b0 4
b0 =
b0 Y
b1010 +
b1010 J
b1010 [
b1000 )
b1000 I
b1000 \
b101011 0
b101011 <
b101011 K
b101011 P
b101011 V
b101011 _
b10101101010010000000000000000000 3
b10101101010010000000000000000000 S
b10101101010010000000000000000000 T
b1111 7
b1111 R
b1111 U
1!
#3000
0!
#3100
b11 1
b11 G
b11 &
b11 ?
b11 N
b1 C
b10 B
b1 (
b1 :
b1 M
b1 O
b10 *
b10 ;
b10 L
1$
1,
1-
0%
b11101 +
b11101 J
b11101 [
b1001 )
b1001 I
b1001 \
b0 0
b0 <
b0 K
b0 P
b0 V
b0 _
b11101010011110100000100000 3
b11101010011110100000100000 S
b11101010011110100000100000 T
b10000 7
b10000 R
b10000 U
1!
#3200
0!
#3300
0,
0-
1$
b0 +
b0 J
b0 [
b1 )
b1 I
b1 \
b1111 0
b1111 <
b1111 K
b1111 P
b1111 V
b1111 _
b111100000000010000000000000000 3
b111100000000010000000000000000 S
b111100000000010000000000000000 T
b10001 7
b10001 R
b10001 U
1!
#3400
0!
#3500
b100000 1
b100000 G
b100000 &
b100000 ?
b100000 N
b100000 E
b100000 A
b11111 C
b0 B
b11111 (
b11111 :
b11111 M
b11111 O
b0 *
b0 ;
b0 L
1-
1$
b100000 4
b100000 =
b100000 Y
b1 +
b1 J
b1 [
b1010 )
b1010 I
b1010 \
b1101 0
b1101 <
b1101 K
b1101 P
b1101 V
b1101 _
b110100001010100000000000100000 3
b110100001010100000000000100000 S
b110100001010100000000000100000 T
b10010 7
b10010 R
b10010 U
1!
#3600
0!
#3700
b0 E
b0 A
b0 C
b100000 B
b0 (
b0 :
b0 M
b0 O
b100000 *
b100000 ;
b100000 L
1%
1-
0$
b0 4
b0 =
b0 Y
b1010 +
b1010 J
b1010 [
b1000 )
b1000 I
b1000 \
b101011 0
b101011 <
b101011 K
b101011 P
b101011 V
b101011 _
b10101101010010000000000000000000 3
b10101101010010000000000000000000 S
b10101101010010000000000000000000 T
b10011 7
b10011 R
b10011 U
1!
#3800
0!
#3900
b100 1
b100 G
b100 &
b100 ?
b100 N
b1 C
b11 B
b1 (
b1 :
b1 M
b1 O
b11 *
b11 ;
b11 L
1$
1,
1-
0%
b11101 +
b11101 J
b11101 [
b1001 )
b1001 I
b1001 \
b0 0
b0 <
b0 K
b0 P
b0 V
b0 _
b11101010011110100000100000 3
b11101010011110100000100000 S
b11101010011110100000100000 T
b10100 7
b10100 R
b10100 U
1!
#4000
0!
#4100
0,
0-
1$
b0 +
b0 J
b0 [
b1 )
b1 I
b1 \
b1111 0
b1111 <
b1111 K
b1111 P
b1111 V
b1111 _
b111100000000010000000000000000 3
b111100000000010000000000000000 S
b111100000000010000000000000000 T
b10101 7
b10101 R
b10101 U
1!
#4200
0!
#4300
b100001 1
b100001 G
b100001 &
b100001 ?
b100001 N
b100001 E
b100001 A
b100000 C
b0 B
b100000 (
b100000 :
b100000 M
b100000 O
b0 *
b0 ;
b0 L
1-
1$
b100001 4
b100001 =
b100001 Y
b1 +
b1 J
b1 [
b1010 )
b1010 I
b1010 \
b1101 0
b1101 <
b1101 K
b1101 P
b1101 V
b1101 _
b110100001010100000000000100001 3
b110100001010100000000000100001 S
b110100001010100000000000100001 T
b10110 7
b10110 R
b10110 U
1!
#4400
0!
#4500
b0 E
b0 A
b0 C
b100001 B
b0 (
b0 :
b0 M
b0 O
b100001 *
b100001 ;
b100001 L
1%
1-
0$
b0 4
b0 =
b0 Y
b1010 +
b1010 J
b1010 [
b1000 )
b1000 I
b1000 \
b101011 0
b101011 <
b101011 K
b101011 P
b101011 V
b101011 _
b10101101010010000000000000000000 3
b10101101010010000000000000000000 S
b10101101010010000000000000000000 T
b10111 7
b10111 R
b10111 U
1!
#4600
0!
#4700
b101 1
b101 G
b101 &
b101 ?
b101 N
b1 C
b100 B
b1 (
b1 :
b1 M
b1 O
b100 *
b100 ;
b100 L
1$
1,
1-
0%
b11101 +
b11101 J
b11101 [
b1001 )
b1001 I
b1001 \
b0 0
b0 <
b0 K
b0 P
b0 V
b0 _
b11101010011110100000100000 3
b11101010011110100000100000 S
b11101010011110100000100000 T
b11000 7
b11000 R
b11000 U
1!
#4800
0!
#4900
0,
0-
1$
b0 +
b0 J
b0 [
b1 )
b1 I
b1 \
b1111 0
b1111 <
b1111 K
b1111 P
b1111 V
b1111 _
b111100000000010000000000000000 3
b111100000000010000000000000000 S
b111100000000010000000000000000 T
b11001 7
b11001 R
b11001 U
1!
#5000
0!
#5100
b0 1
b0 G
b0 &
b0 ?
b0 N
b0 C
b0 B
b0 (
b0 :
b0 M
b0 O
b0 *
b0 ;
b0 L
1-
1$
b1 +
b1 J
b1 [
b1000 )
b1000 I
b1000 \
b1101 0
b1101 <
b1101 K
b1101 P
b1101 V
b1101 _
b110100001010000000000000000000 3
b110100001010000000000000000000 S
b110100001010000000000000000000 T
b11010 7
b11010 R
b11010 U
1!
#5200
0!
#5300
b1 C
b0 2
b0 Q
b1 (
b1 :
b1 M
b1 O
1.
1-
1$
b1000 +
b1000 J
b1000 [
b1001 )
b1001 I
b1001 \
b100011 0
b100011 <
b100011 K
b100011 P
b100011 V
b100011 _
b10001101000010010000000000000000 3
b10001101000010010000000000000000 S
b10001101000010010000000000000000 T
b11011 7
b11011 R
b11011 U
1!
#5400
0!
#5500
0-
1$
0.
b0 +
b0 J
b0 [
b1 )
b1 I
b1 \
b1111 0
b1111 <
b1111 K
b1111 P
b1111 V
b1111 _
b111100000000010000000000000000 3
b111100000000010000000000000000 S
b111100000000010000000000000000 T
b11100 7
b11100 R
b11100 U
1!
#5600
0!
#5700
b100010 1
b100010 G
b100010 &
b100010 ?
b100010 N
b100010 E
b100010 A
b100001 C
b100001 (
b100001 :
b100001 M
b100001 O
1-
1$
b100010 4
b100010 =
b100010 Y
b1 +
b1 J
b1 [
b1010 )
b1010 I
b1010 \
b1101 0
b1101 <
b1101 K
b1101 P
b1101 V
b1101 _
b110100001010100000000000100010 3
b110100001010100000000000100010 S
b110100001010100000000000100010 T
b11101 7
b11101 R
b11101 U
1!
#5800
0!
#5900
b0 E
b0 A
b1 C
b100010 B
b1 (
b1 :
b1 M
b1 O
b100010 *
b100010 ;
b100010 L
1%
1-
0$
b0 4
b0 =
b0 Y
b1010 +
b1010 J
b1010 [
b1001 )
b1001 I
b1001 \
b101011 0
b101011 <
b101011 K
b101011 P
b101011 V
b101011 _
b10101101010010010000000000000000 3
b10101101010010010000000000000000 S
b10101101010010010000000000000000 T
b11110 7
b11110 R
b11110 U
1!
#6000
0!
#6100
1$
0-
0%
b0 +
b0 J
b0 [
b1 )
b1 I
b1 \
b1111 0
b1111 <
b1111 K
b1111 P
b1111 V
b1111 _
b111100000000010000000000000000 3
b111100000000010000000000000000 S
b111100000000010000000000000000 T
b11111 7
b11111 R
b11111 U
1!
#6200
0!
#6300
b1 1
b1 G
b1 &
b1 ?
b1 N
b1 E
b1 A
b0 C
b0 B
b0 (
b0 :
b0 M
b0 O
b0 *
b0 ;
b0 L
1-
1$
b1 4
b1 =
b1 Y
b1 +
b1 J
b1 [
b1000 )
b1000 I
b1000 \
b1101 0
b1101 <
b1101 K
b1101 P
b1101 V
b1101 _
b110100001010000000000000000001 3
b110100001010000000000000000001 S
b110100001010000000000000000001 T
b100000 7
b100000 R
b100000 U
1!
#6400
0!
#6500
b110 1
b110 G
b110 &
b110 ?
b110 N
b1 C
b101 B
b1 (
b1 :
b1 M
b1 O
b101 *
b101 ;
b101 L
1,
1-
1$
b11101 +
b11101 J
b11101 [
b0 0
b0 <
b0 K
b0 P
b0 V
b0 _
b11101010001110100000100000 3
b11101010001110100000100000 S
b11101010001110100000100000 T
b100001 7
b100001 R
b100001 U
1!
#6600
0!
#6700
b0 1
b0 G
b0 &
b0 ?
b0 N
b0 E
b0 A
0,
0-
1$
b0 4
b0 =
b0 Y
b0 +
b0 J
b0 [
b1 )
b1 I
b1 \
b1111 0
b1111 <
b1111 K
b1111 P
b1111 V
b1111 _
b111100000000010000000000000000 3
b111100000000010000000000000000 S
b111100000000010000000000000000 T
b100010 7
b100010 R
b100010 U
1!
#6800
0!
#6900
b1 1
b1 G
b1 &
b1 ?
b1 N
b1 E
b1 A
b0 B
b0 *
b0 ;
b0 L
1-
1$
b1 4
b1 =
b1 Y
b1 +
b1 J
b1 [
b1001 )
b1001 I
b1001 \
b1101 0
b1101 <
b1101 K
b1101 P
b1101 V
b1101 _
b110100001010010000000000000001 3
b110100001010010000000000000001 S
b110100001010010000000000000001 T
b100011 7
b100011 R
b100011 U
1!
#7000
0!
#7100
b101 1
b101 G
b101 &
b101 ?
b101 N
b110 B
b110 *
b110 ;
b110 L
1,
1-
1$
b100010 5
b100010 >
b100010 X
b100010 ^
b11101 +
b11101 J
b11101 [
b0 0
b0 <
b0 K
b0 P
b0 V
b0 _
b11101010011110100000100010 3
b11101010011110100000100010 S
b11101010011110100000100010 T
b100100 7
b100100 R
b100100 U
1!
#7200
0!
#7300
b0 1
b0 G
b0 &
b0 ?
b0 N
b0 E
b0 A
0,
0-
1$
b0 4
b0 =
b0 Y
b0 +
b0 J
b0 [
b1 )
b1 I
b1 \
b1111 0
b1111 <
b1111 K
b1111 P
b1111 V
b1111 _
b111100000000010000000000000000 3
b111100000000010000000000000000 S
b111100000000010000000000000000 T
b100101 7
b100101 R
b100101 U
1!
#7400
0!
#7500
b100011 1
b100011 G
b100011 &
b100011 ?
b100011 N
b100011 E
b100011 A
b0 B
b0 *
b0 ;
b0 L
1-
1$
b100011 4
b100011 =
b100011 Y
b1 +
b1 J
b1 [
b1001 )
b1001 I
b1001 \
b1101 0
b1101 <
b1101 K
b1101 P
b1101 V
b1101 _
b110100001010010000000000100011 3
b110100001010010000000000100011 S
b110100001010010000000000100011 T
b100110 7
b100110 R
b100110 U
1!
#7600
0!
#7700
b1 1
b1 G
b1 &
b1 ?
b1 N
b0 E
b0 A
b100011 C
b1 B
b100011 (
b100011 :
b100011 M
b100011 O
b1 *
b1 ;
b1 L
1%
1-
0$
b0 4
b0 =
b0 Y
b1000 +
b1000 J
b1000 [
b101011 0
b101011 <
b101011 K
b101011 P
b101011 V
b101011 _
b10101101000010010000000000000000 3
b10101101000010010000000000000000 S
b10101101000010010000000000000000 T
b100111 7
b100111 R
b100111 U
1!
#7800
0!
#7900
1$
0-
0%
b0 +
b0 J
b0 [
b1 )
b1 I
b1 \
b1111 0
b1111 <
b1111 K
b1111 P
b1111 V
b1111 _
b111100000000010000000000000000 3
b111100000000010000000000000000 S
b111100000000010000000000000000 T
b101000 7
b101000 R
b101000 U
1!
#8000
0!
#8100
b101 1
b101 G
b101 &
b101 ?
b101 N
b101 E
b101 A
b0 B
b0 *
b0 ;
b0 L
1-
1$
b101 4
b101 =
b101 Y
b1 +
b1 J
b1 [
b1001 )
b1001 I
b1001 \
b1101 0
b1101 <
b1101 K
b1101 P
b1101 V
b1101 _
b110100001010010000000000000101 3
b110100001010010000000000000101 S
b110100001010010000000000000101 T
b101001 7
b101001 R
b101001 U
1!
#8200
0!
#8300
b0 E
b0 A
b101 C
b101 B
b101 (
b101 :
b101 M
b101 O
b101 *
b101 ;
b101 L
1%
1-
0$
b0 4
b0 =
b0 Y
b11101 +
b11101 J
b11101 [
b101011 0
b101011 <
b101011 K
b101011 P
b101011 V
b101011 _
b10101111101010010000000000000000 3
b10101111101010010000000000000000 S
b10101111101010010000000000000000 T
b101010 7
b101010 R
b101010 U
1!
#8400
0!
#8500
1$
0-
0%
b0 +
b0 J
b0 [
b1 )
b1 I
b1 \
b1111 0
b1111 <
b1111 K
b1111 P
b1111 V
b1111 _
b111100000000010000000000000000 3
b111100000000010000000000000000 S
b111100000000010000000000000000 T
b101011 7
b101011 R
b101011 U
1!
#8600
0!
#8700
b1 1
b1 G
b1 &
b1 ?
b1 N
b1 E
b1 A
b0 B
b0 *
b0 ;
b0 L
1-
1$
b1 4
b1 =
b1 Y
b1 +
b1 J
b1 [
b1001 )
b1001 I
b1001 \
b1101 0
b1101 <
b1101 K
b1101 P
b1101 V
b1101 _
b110100001010010000000000000001 3
b110100001010010000000000000001 S
b110100001010010000000000000001 T
b101100 7
b101100 R
b101100 U
1!
#8800
0!
#8900
b110 1
b110 G
b110 &
b110 ?
b110 N
b1 C
b101 B
b1 (
b1 :
b1 M
b1 O
b101 *
b101 ;
b101 L
1,
1-
1$
b100000 5
b100000 >
b100000 X
b100000 ^
b11101 +
b11101 J
b11101 [
b0 0
b0 <
b0 K
b0 P
b0 V
b0 _
b11101010011110100000100000 3
b11101010011110100000100000 S
b11101010011110100000100000 T
b101101 7
b101101 R
b101101 U
1!
#9000
0!
#9100
b0 1
b0 G
b0 &
b0 ?
b0 N
b0 E
b0 A
0,
0-
1$
b0 4
b0 =
b0 Y
b0 +
b0 J
b0 [
b1 )
b1 I
b1 \
b1111 0
b1111 <
b1111 K
b1111 P
b1111 V
b1111 _
b111100000000010000000000000000 3
b111100000000010000000000000000 S
b111100000000010000000000000000 T
b101110 7
b101110 R
b101110 U
1!
#9200
0!
#9300
b0 B
b0 *
b0 ;
b0 L
1-
1$
b1 +
b1 J
b1 [
b1000 )
b1000 I
b1000 \
b1101 0
b1101 <
b1101 K
b1101 P
b1101 V
b1101 _
b110100001010000000000000000000 3
b110100001010000000000000000000 S
b110100001010000000000000000000 T
b101111 7
b101111 R
b101111 U
1!
#9400
0!
#9500
0-
1$
b0 +
b0 J
b0 [
b1 )
b1 I
b1 \
b1111 0
b1111 <
b1111 K
b1111 P
b1111 V
b1111 _
b111100000000010000000000000000 3
b111100000000010000000000000000 S
b111100000000010000000000000000 T
b110000 7
b110000 R
b110000 U
1!
#9600
0!
#9700
b1 1
b1 G
b1 &
b1 ?
b1 N
b1 E
b1 A
1-
1$
b1 4
b1 =
b1 Y
b1 +
b1 J
b1 [
b1001 )
b1001 I
b1001 \
b1101 0
b1101 <
b1101 K
b1101 P
b1101 V
b1101 _
b110100001010010000000000000001 3
b110100001010010000000000000001 S
b110100001010010000000000000001 T
b110001 7
b110001 R
b110001 U
1!
#9800
0!
#9900
b101 1
b101 G
b101 &
b101 ?
b101 N
b110 B
b110 *
b110 ;
b110 L
1,
1-
1$
b100010 5
b100010 >
b100010 X
b100010 ^
b11101 +
b11101 J
b11101 [
b0 0
b0 <
b0 K
b0 P
b0 V
b0 _
b11101010011110100000100010 3
b11101010011110100000100010 S
b11101010011110100000100010 T
b110010 7
b110010 R
b110010 U
1!
#10000
0!
#10100
b0 1
b0 G
b0 &
b0 ?
b0 N
b0 E
b0 A
0,
0-
1$
b0 4
b0 =
b0 Y
b0 +
b0 J
b0 [
b1 )
b1 I
b1 \
b1111 0
b1111 <
b1111 K
b1111 P
b1111 V
b1111 _
b111100000000010000000000000000 3
b111100000000010000000000000000 S
b111100000000010000000000000000 T
b110011 7
b110011 R
b110011 U
1!
#10200
0!
#10300
b100100 1
b100100 G
b100100 &
b100100 ?
b100100 N
b100100 E
b100100 A
b0 B
b0 *
b0 ;
b0 L
1-
1$
b100100 4
b100100 =
b100100 Y
b1 +
b1 J
b1 [
b1001 )
b1001 I
b1001 \
b1101 0
b1101 <
b1101 K
b1101 P
b1101 V
b1101 _
b110100001010010000000000100100 3
b110100001010010000000000100100 S
b110100001010010000000000100100 T
b110100 7
b110100 R
b110100 U
1!
#10400
0!
#10500
b1 1
b1 G
b1 &
b1 ?
b1 N
b0 E
b0 A
b100100 C
b1 B
b100100 (
b100100 :
b100100 M
b100100 O
b1 *
b1 ;
b1 L
1%
1-
0$
b0 4
b0 =
b0 Y
b1000 +
b1000 J
b1000 [
b101011 0
b101011 <
b101011 K
b101011 P
b101011 V
b101011 _
b10101101000010010000000000000000 3
b10101101000010010000000000000000 S
b10101101000010010000000000000000 T
b110101 7
b110101 R
b110101 U
1!
#10600
0!
#10700
1$
0-
0%
b0 +
b0 J
b0 [
b1 )
b1 I
b1 \
b1111 0
b1111 <
b1111 K
b1111 P
b1111 V
b1111 _
b111100000000010000000000000000 3
b111100000000010000000000000000 S
b111100000000010000000000000000 T
b110110 7
b110110 R
b110110 U
1!
#10800
0!
#10900
b0 1
b0 G
b0 &
b0 ?
b0 N
b1 C
b0 B
b1 (
b1 :
b1 M
b1 O
b0 *
b0 ;
b0 L
1-
1$
b1 +
b1 J
b1 [
b1000 )
b1000 I
b1000 \
b1101 0
b1101 <
b1101 K
b1101 P
b1101 V
b1101 _
b110100001010000000000000000000 3
b110100001010000000000000000000 S
b110100001010000000000000000000 T
b110111 7
b110111 R
b110111 U
1!
#11000
0!
#11100
b100100 C
b100100 (
b100100 :
b100100 M
b100100 O
1.
1-
1$
b1000 +
b1000 J
b1000 [
b1001 )
b1001 I
b1001 \
b100011 0
b100011 <
b100011 K
b100011 P
b100011 V
b100011 _
b10001101000010010000000000000000 3
b10001101000010010000000000000000 S
b10001101000010010000000000000000 T
b111000 7
b111000 R
b111000 U
1!
#11200
0!
#11300
0-
1$
0.
b0 +
b0 J
b0 [
b1 )
b1 I
b1 \
b1111 0
b1111 <
b1111 K
b1111 P
b1111 V
b1111 _
b111100000000010000000000000000 3
b111100000000010000000000000000 S
b111100000000010000000000000000 T
b111001 7
b111001 R
b111001 U
1!
#11400
0!
#11500
b100100 1
b100100 G
b100100 &
b100100 ?
b100100 N
b100100 E
b100100 A
b100010 C
b100010 (
b100010 :
b100010 M
b100010 O
1-
1$
b100100 4
b100100 =
b100100 Y
b1 +
b1 J
b1 [
b1010 )
b1010 I
b1010 \
b1101 0
b1101 <
b1101 K
b1101 P
b1101 V
b1101 _
b110100001010100000000000100100 3
b110100001010100000000000100100 S
b110100001010100000000000100100 T
b111010 7
b111010 R
b111010 U
1!
#11600
0!
#11700
b0 E
b0 A
b100100 C
b100100 B
b100100 (
b100100 :
b100100 M
b100100 O
b100100 *
b100100 ;
b100100 L
1%
1-
0$
b0 4
b0 =
b0 Y
b1010 +
b1010 J
b1010 [
b1001 )
b1001 I
b1001 \
b101011 0
b101011 <
b101011 K
b101011 P
b101011 V
b101011 _
b10101101010010010000000000000000 3
b10101101010010010000000000000000 S
b10101101010010010000000000000000 T
b111011 7
b111011 R
b111011 U
1!
#11800
0!
#11900
1$
0-
0%
b0 +
b0 J
b0 [
b1 )
b1 I
b1 \
b1111 0
b1111 <
b1111 K
b1111 P
b1111 V
b1111 _
b111100000000010000000000000000 3
b111100000000010000000000000000 S
b111100000000010000000000000000 T
b111100 7
b111100 R
b111100 U
1!
#12000
0!
#12100
b1 1
b1 G
b1 &
b1 ?
b1 N
b1 E
b1 A
b0 C
b0 B
b0 (
b0 :
b0 M
b0 O
b0 *
b0 ;
b0 L
1-
1$
b1 4
b1 =
b1 Y
b1 +
b1 J
b1 [
b1000 )
b1000 I
b1000 \
b1101 0
b1101 <
b1101 K
b1101 P
b1101 V
b1101 _
b110100001010000000000000000001 3
b110100001010000000000000000001 S
b110100001010000000000000000001 T
b111101 7
b111101 R
b111101 U
1!
#12200
0!
#12300
b110 1
b110 G
b110 &
b110 ?
b110 N
b1 C
b101 B
b1 (
b1 :
b1 M
b1 O
b101 *
b101 ;
b101 L
1,
1-
1$
b100000 5
b100000 >
b100000 X
b100000 ^
b11101 +
b11101 J
b11101 [
b0 0
b0 <
b0 K
b0 P
b0 V
b0 _
b11101010001110100000100000 3
b11101010001110100000100000 S
b11101010001110100000100000 T
b111110 7
b111110 R
b111110 U
1!
#12400
0!
#12500
b0 1
b0 G
b0 &
b0 ?
b0 N
b0 E
b0 A
0,
0-
1$
b0 4
b0 =
b0 Y
b0 +
b0 J
b0 [
b1 )
b1 I
b1 \
b1111 0
b1111 <
b1111 K
b1111 P
b1111 V
b1111 _
b111100000000010000000000000000 3
b111100000000010000000000000000 S
b111100000000010000000000000000 T
b111111 7
b111111 R
b111111 U
1!
#12600
0!
